…
``` r
ktk_turn_1 <-
  ktk_replay_data |>
  select(won, all_of(turn_1_card_cols)) |>
  collect()
```

The output of
[`collect()`](https://dplyr.tidyverse.org/reference/compute.html) is a
dataframe (tibble). This is **much smaller** than the original replay
dataframe, so we will have no problem working with it in R as usual.

``` r
ktk_turn_1
#> # A tibble: 212,170 × 7
#>    won   user_turn_1_cards_drawn user_turn_1_cards_tuto…¹ user_turn_1_creature…²
#>    <chr> <chr>                   <chr>                    <chr>                 
#>  1 True  NA                      NA                       NA                    
#>  2 True  58033                   NA                       NA                    
#>  3 False NA                      NA                       NA                    
#>  4 False 58183                   NA                       NA                    
#>  5 True  90190                   NA                       NA                    
#>  6 False 58145                   NA                       NA                    
#>  7 False NA                      NA                       57959                 
#>  8 False 58423                   NA                       NA                    
#>  9 False 57939                   NA                       57959                 
#> 10 True  58409                   NA                       NA                    
#> # ℹ 212,160 more rows
#> # ℹ abbreviated names: ¹​user_turn_1_cards_tutored, ²​user_turn_1_creatures_cast
#> # ℹ 3 more variables: user_turn_1_eot_user_cards_in_hand <chr>,
#> #   user_turn_1_lands_played <chr>, user_turn_1_non_creatures_cast <chr>
```
…
ktk_opening_hand_wr
#> # A tibble: 352 × 4
#>     card n_win n_total win_rate
#>    <dbl> <int>   <int>    <dbl>
#>  1 58263   564     874    0.645
#>  2 84596   381     591    0.645
#>  3 57999   661    1039    0.636
#>  4 57961  1357    2139    0.634
#>  5 58135   589     935    0.630
#>  6 57981  3378    5367    0.629
#>  7 58275  2983    4767    0.626
#>  8 58331   936    1496    0.626
#>  9 57963  1353    2164    0.625
#> 10 58305   982    1575    0.623
#> # ℹ 342 more rows
```
…
``` r
card_names <- readr::read_csv("https://17lands-public.s3.amazonaws.com/analysis_data/cards/cards.csv")
#> Rows: 22509 Columns: 8
#> ── Column specification ────────────────────────────────────────────────────────
#> Delimiter: ","
#> chr (5): expansion, name, rarity, color_identity, types
#> dbl (2): id, mana_value
#> lgl (1): is_booster
#> 
#> ℹ Use `spec()` to retrieve the full column specification for this data.
#> ℹ Specify the column types or set `show_col_types = FALSE` to quiet this message.

card_names
#> # A tibble: 22,509 × 8
#>       id expansion name        rarity color_identity mana_value types is_booster
#>    <dbl> <chr>     <chr>       <chr>  <chr>               <dbl> <chr> <lgl>     
#>  1 65591 HOU       Ammit Eter… rare   B                       3 Crea… TRUE      
#>  2 65633 HOU       Torment of… uncom… B                       4 Ench… TRUE      
#>  3 32925 M10       Merfolk Lo… common U                       2 Crea… TRUE      
#>  4 32951 M10       Ornithopter uncom… NA                      0 Arti… TRUE      
#>  5 33035 M10       Platinum A… mythic NA                      7 Arti… TRUE      
#>  6 33069 M10       Hypnotic S… rare   B                       3 Crea… TRUE      
#>  7 65961 XLN       Adanto Van… uncom… W                       2 Crea… TRUE      
#>  8 65963 XLN       Ashes of t… rare   W                       2 Ench… TRUE      
#>  9 65965 XLN       Axis of Mo… mythic W                       6 Ench… TRUE      
#> 10 65967 XLN       Bellowing … uncom… W                       6 Crea… TRUE      
#> # ℹ 22,499 more rows
```

Let’s do a join operation to go from card ID to card name and drop basic
lands:

``` r
ktk_opening_hand_wr |>
  left_join(select(card_names, card = id, name)) |>
  filter(!name %in% c("Swamp", "Plains", "Island", "Mountain", "Forest"))
#> Joining with `by = join_by(card)`
#> # A tibble: 224 × 5
#>     card n_win n_total win_rate name                     
#>    <dbl> <int>   <int>    <dbl> <chr>                    
#>  1 58263   564     874    0.645 Anafenza, the Foremost   
#>  2 57999   661    1039    0.636 Wingmate Roc             
#>  3 57961  1357    2139    0.634 Herald of Anafenza       
#>  4 58135   589     935    0.630 Ashcloud Phoenix         
#>  5 57981  3378    5367    0.629 Seeker of the Way        
#>  6 58275  2983    4767    0.626 Chief of the Edge        
#>  7 58331   936    1496    0.626 Savage Knuckleblade      
#>  8 57963  1353    2164    0.625 High Sentinels of Arashin
#>  9 58305   982    1575    0.623 Mantis Rider             
#> 10 58329  1195    1917    0.623 Sagu Mauler              
#> # ℹ 214 more rows
```
…
